TestCreationAction 1639304820882 GameTest.java ADD void testShouldBeEexactlyCalculatedScoreWithStrikeAndSpare()/2 METHOD ADD void testShouldBeEexactlyCalculatedScoreWithStrikeAndSpare()/2 METHOD
TestCreationAction 1639304830090 GameTest.java RENAME testShouldBeEexactlyCalculatedScoreWithStrikeAndSpare()/2=>void testShouldBeEexactlyCalculatedScoreWithMultipleStrikeAndSpare() METHOD RENAME testShouldBeEexactlyCalculatedScoreWithStrikeAndSpare()/2=>void testShouldBeEexactlyCalculatedScoreWithMultipleStrikeAndSpare() METHOD
TestCreationAction 1639304833619 GameTest.java RENAME testShouldBeEexactlyCalculatedScoreWithMultipleStrikeAndSpare()=>void testShouldBeEexactlyCalculatedScoreWithMultipleStrike() METHOD RENAME testShouldBeEexactlyCalculatedScoreWithMultipleStrikeAndSpare()=>void testShouldBeEexactlyCalculatedScoreWithMultipleStrike() METHOD
TestCreationAction 1639304835261 GameTest.java CHANGE GameTest.java CLASS CHANGE GameTest.java CLASS
EditAction 1639304835263 GameTest.java 3767 8 82 6
EditAction 1639304835484 GameTest.java 3767 8 82 6
TestCreationAction 1639304879177 GameTest.java CHANGE GameTest.java CLASS CHANGE GameTest.java CLASS
EditAction 1639304879178 GameTest.java 3768 8 82 6
EditAction 1639304879359 GameTest.java 3768 8 82 6
TestFailureAction 1639304881860 GameTest.java FAIL
CodeEditingAction 1639304906901 Game.java ADD Game.java CLASS
CodeEditingAction 1639304995676 Game.java CHANGE Game.java CLASS
EditAction 1639304995795 Game.java 2770 8 7 0
TestFailureAction 1639305001961 GameTest.java FAIL
EditAction 1639305038024 Game.java 2770 8 7 0
EditAction 1639305038032 Game.java 2770 8 7 0
EditAction 1639305038038 Game.java 2770 8 7 0
EditAction 1639305038622 Game.java 2770 8 7 0
EditAction 1639305105977 Game.java 2770 8 7 0
EditAction 1639305105985 Game.java 2770 8 7 0
EditAction 1639305105993 Game.java 2770 8 7 0
EditAction 1639305106133 Game.java 2770 8 7 0
EditAction 1639305111491 Game.java 2770 8 7 0
EditAction 1639305111498 Game.java 2770 8 7 0
EditAction 1639305111504 Game.java 2770 8 7 0
EditAction 1639305112137 Game.java 2770 8 7 0
EditAction 1639305225257 Game.java 2770 8 7 0
EditAction 1639305225263 Game.java 2770 8 7 0
EditAction 1639305225269 Game.java 2770 8 7 0
EditAction 1639305225381 Game.java 2770 8 7 0
CodeEditingAction 1639305229234 Game.java CHANGE Game.java CLASS
EditAction 1639305229347 Game.java 2811 8 7 0
TestFailureAction 1639305234363 GameTest.java FAIL
EditAction 1639305241452 Game.java 2811 8 7 0
EditAction 1639305241458 Game.java 2811 8 7 0
EditAction 1639305241463 Game.java 2811 8 7 0
EditAction 1639305242150 Game.java 2811 8 7 0
CodeEditingAction 1639305293470 Game.java CHANGE Game.java CLASS
EditAction 1639305293589 Game.java 2842 8 7 0
EditAction 1639305293608 Game.java 2842 8 7 0
EditAction 1639305293613 Game.java 2842 8 7 0
EditAction 1639305293621 Game.java 2842 8 7 0
EditAction 1639305293627 Game.java 2842 8 7 0
EditAction 1639305293633 Game.java 2842 8 7 0
EditAction 1639305293641 Game.java 2842 8 7 0
EditAction 1639305294596 Game.java 2842 8 7 0
EditAction 1639305294905 Game.java 2842 8 7 0
EditAction 1639305294910 Game.java 2842 8 7 0
EditAction 1639305294916 Game.java 2842 8 7 0
EditAction 1639305295651 Game.java 2842 8 7 0
TestFailureAction 1639305298976 GameTest.java FAIL
EditAction 1639305312889 Game.java 2842 8 7 0
EditAction 1639305312895 Game.java 2842 8 7 0
EditAction 1639305312900 Game.java 2842 8 7 0
EditAction 1639305313544 Game.java 2842 8 7 0
EditAction 1639305402337 Game.java 2842 8 7 0
EditAction 1639305402343 Game.java 2842 8 7 0
EditAction 1639305402348 Game.java 2842 8 7 0
EditAction 1639305402461 Game.java 2842 8 7 0
CodeEditingAction 1639305520161 Game.java CHANGE Game.java CLASS
EditAction 1639305520274 Game.java 2781 8 7 0
TestFailureAction 1639305524715 GameTest.java FAIL
CodeEditingAction 1639305562164 Game.java CHANGE Game.java CLASS
EditAction 1639305562276 Game.java 2845 8 4 0
CodeEditingAction 1639305567724 Game.java CHANGE Game.java CLASS
EditAction 1639305567836 Game.java 2842 8 7 0
TestFailureAction 1639305570615 GameTest.java FAIL
EditAction 1639305577594 Game.java 2842 8 7 0
EditAction 1639305577600 Game.java 2842 8 7 0
EditAction 1639305577604 Game.java 2842 8 7 0
EditAction 1639305578251 Game.java 2842 8 7 0
CodeEditingAction 1639305665482 Game.java CHANGE Game.java CLASS
EditAction 1639305665643 Game.java 2782 8 7 0
EditAction 1639305665657 Game.java 2782 8 7 0
EditAction 1639305665661 Game.java 2782 8 7 0
EditAction 1639305665668 Game.java 2782 8 7 0
EditAction 1639305665673 Game.java 2782 8 7 0
EditAction 1639305665678 Game.java 2782 8 7 0
EditAction 1639305665685 Game.java 2782 8 7 0
EditAction 1639305666648 Game.java 2782 8 7 0
TestFailureAction 1639305670582 GameTest.java FAIL
CodeEditingAction 1639305674126 Game.java ADD import org.junit.Assert.assertEquals IMPORT
CodeEditingAction 1639305674126 Game.java ADD import org.junit.Test IMPORT
CodeEditingAction 1639305675633 Game.java REMOVE import java.util.ArrayList IMPORT
CodeEditingAction 1639305732013 Game.java CHANGE Game.java CLASS
EditAction 1639305732179 Game.java 2863 8 7 0
EditAction 1639305732192 Game.java 2863 8 7 0
EditAction 1639305732197 Game.java 2863 8 7 0
EditAction 1639305732204 Game.java 2863 8 7 0
EditAction 1639305732208 Game.java 2863 8 7 0
EditAction 1639305732214 Game.java 2863 8 7 0
EditAction 1639305732221 Game.java 2863 8 7 0
EditAction 1639305733183 Game.java 2863 8 7 0
TestFailureAction 1639305734847 GameTest.java FAIL
EditAction 1639305744235 Game.java 2863 8 7 0
EditAction 1639305744240 Game.java 2863 8 7 0
EditAction 1639305744245 Game.java 2863 8 7 0
EditAction 1639305744943 Game.java 2863 8 7 0
EditAction 1639305761410 Game.java 2863 8 7 0
EditAction 1639305761415 Game.java 2863 8 7 0
EditAction 1639305761419 Game.java 2863 8 7 0
EditAction 1639305761524 Game.java 2863 8 7 0
EditAction 1639305764052 Game.java 2863 8 7 0
EditAction 1639305764057 Game.java 2863 8 7 0
EditAction 1639305764062 Game.java 2863 8 7 0
EditAction 1639305764688 Game.java 2863 8 7 0
CodeEditingAction 1639305863271 Game.java CHANGE Game.java CLASS
EditAction 1639305863387 Game.java 2863 8 7 0
EditAction 1639305863401 Game.java 2863 8 7 0
EditAction 1639305863405 Game.java 2863 8 7 0
EditAction 1639305863412 Game.java 2863 8 7 0
EditAction 1639305863417 Game.java 2863 8 7 0
EditAction 1639305863422 Game.java 2863 8 7 0
EditAction 1639305863429 Game.java 2863 8 7 0
EditAction 1639305863443 Game.java 2863 8 7 0
EditAction 1639305863450 Game.java 2863 8 7 0
EditAction 1639305863457 Game.java 2863 8 7 0
EditAction 1639305863468 Game.java 2863 8 7 0
EditAction 1639305863475 Game.java 2863 8 7 0
EditAction 1639305863481 Game.java 2863 8 7 0
EditAction 1639305864433 Game.java 2863 8 7 0
TestFailureAction 1639305865253 GameTest.java FAIL
CodeEditingAction 1639305879284 Game.java CHANGE Game.java CLASS
EditAction 1639305879399 Game.java 2862 8 7 0
EditAction 1639305879412 Game.java 2862 8 7 0
EditAction 1639305879416 Game.java 2862 8 7 0
EditAction 1639305879423 Game.java 2862 8 7 0
EditAction 1639305879427 Game.java 2862 8 7 0
EditAction 1639305879432 Game.java 2862 8 7 0
EditAction 1639305879438 Game.java 2862 8 7 0
EditAction 1639305879452 Game.java 2862 8 7 0
EditAction 1639305879456 Game.java 2862 8 7 0
EditAction 1639305879463 Game.java 2862 8 7 0
EditAction 1639305879467 Game.java 2862 8 7 0
EditAction 1639305879471 Game.java 2862 8 7 0
EditAction 1639305879477 Game.java 2862 8 7 0
EditAction 1639305880429 Game.java 2862 8 7 0
EditAction 1639305880874 Game.java 2862 8 7 0
EditAction 1639305880879 Game.java 2862 8 7 0
EditAction 1639305880883 Game.java 2862 8 7 0
EditAction 1639305881484 Game.java 2862 8 7 0
TestFailureAction 1639305883686 GameTest.java FAIL
EditAction 1639305888656 Game.java 2862 8 7 0
EditAction 1639305888661 Game.java 2862 8 7 0
EditAction 1639305888665 Game.java 2862 8 7 0
EditAction 1639305889326 Game.java 2862 8 7 0
EditAction 1639305984993 Game.java 2862 8 7 0
EditAction 1639305984999 Game.java 2862 8 7 0
EditAction 1639305985004 Game.java 2862 8 7 0
EditAction 1639305985117 Game.java 2862 8 7 0
CodeEditingAction 1639306089802 Game.java CHANGE Game.java CLASS
EditAction 1639306089854 Game.java 2924 8 7 0
EditAction 1639306089867 Game.java 2924 8 7 0
EditAction 1639306089872 Game.java 2924 8 7 0
EditAction 1639306089878 Game.java 2924 8 7 0
EditAction 1639306089883 Game.java 2924 8 7 0
EditAction 1639306089889 Game.java 2924 8 7 0
EditAction 1639306089896 Game.java 2924 8 7 0
EditAction 1639306090046 Game.java 2924 8 7 0
TestFailureAction 1639306090271 GameTest.java FAIL
EditAction 1639306105150 Game.java 2924 8 7 0
EditAction 1639306105155 Game.java 2924 8 7 0
EditAction 1639306105160 Game.java 2924 8 7 0
EditAction 1639306105850 Game.java 2924 8 7 0
CodeEditingAction 1639306165204 Game.java CHANGE Game.java CLASS
EditAction 1639306165320 Game.java 2920 8 7 0
EditAction 1639306165334 Game.java 2920 8 7 0
EditAction 1639306165338 Game.java 2920 8 7 0
EditAction 1639306165345 Game.java 2920 8 7 0
EditAction 1639306165350 Game.java 2920 8 7 0
EditAction 1639306165354 Game.java 2920 8 7 0
EditAction 1639306165360 Game.java 2920 8 7 0
EditAction 1639306165373 Game.java 2920 8 7 0
EditAction 1639306165377 Game.java 2920 8 7 0
EditAction 1639306165384 Game.java 2920 8 7 0
EditAction 1639306165388 Game.java 2920 8 7 0
EditAction 1639306165393 Game.java 2920 8 7 0
EditAction 1639306165399 Game.java 2920 8 7 0
EditAction 1639306166325 Game.java 2920 8 7 0
TestPassAction 1639306168596 GameTest.java OK
TestCreationAction 1639306241775 GameTest.java ADD void testShouldBeEexactlyCalculatedScoreWithMultipleStrike()/2 METHOD ADD void testShouldBeEexactlyCalculatedScoreWithMultipleStrike()/2 METHOD
TestCreationAction 1639306248286 GameTest.java RENAME testShouldBeEexactlyCalculatedScoreWithMultipleStrike()/2=>void testShouldBeEexactlyCalculatedScoreWithMultipleSpare() METHOD RENAME testShouldBeEexactlyCalculatedScoreWithMultipleStrike()/2=>void testShouldBeEexactlyCalculatedScoreWithMultipleSpare() METHOD
TestCreationAction 1639306343663 GameTest.java CHANGE GameTest.java CLASS CHANGE GameTest.java CLASS
EditAction 1639306343663 GameTest.java 4280 9 94 7
EditAction 1639306343783 GameTest.java 4280 9 94 7
TestPassAction 1639306350863 GameTest.java OK
TestCreationAction 1639306469984 GameTest.java ADD void testShouldBeEexactlyCalculatedScoreWithMultipleSpare()/2 METHOD ADD void testShouldBeEexactlyCalculatedScoreWithMultipleSpare()/2 METHOD
TestCreationAction 1639306477495 GameTest.java RENAME testShouldBeEexactlyCalculatedScoreWithMultipleSpare()/2=>void testShouldBeEexactlyCalculatedScoreWithSpare()/2 METHOD RENAME testShouldBeEexactlyCalculatedScoreWithMultipleSpare()/2=>void testShouldBeEexactlyCalculatedScoreWithSpare()/2 METHOD
TestCreationAction 1639306492510 GameTest.java RENAME testShouldBeEexactlyCalculatedScoreWithSpare()/2=>void testShouldBeEexactlyCalculatedScoreWithSpareAt() METHOD RENAME testShouldBeEexactlyCalculatedScoreWithSpare()/2=>void testShouldBeEexactlyCalculatedScoreWithSpareAt() METHOD
TestCreationAction 1639306494518 GameTest.java RENAME testShouldBeEexactlyCalculatedScoreWithSpareAt()=>void testShouldBeEexactlyCalculatedScoreWithSpareAtLastFrame() METHOD RENAME testShouldBeEexactlyCalculatedScoreWithSpareAt()=>void testShouldBeEexactlyCalculatedScoreWithSpareAtLastFrame() METHOD
TestCreationAction 1639306584240 GameTest.java CHANGE GameTest.java CLASS CHANGE GameTest.java CLASS
EditAction 1639306584241 GameTest.java 4792 10 106 8
EditAction 1639306584301 GameTest.java 4792 10 106 8
TestFailureAction 1639306584624 GameTest.java FAIL
TestFailureAction 1639306592019 GameTest.java FAIL
CodeEditingAction 1639306768118 Game.java ADD int B FIELD
CodeEditingAction 1639306770124 Game.java RENAME B=>int bonus FIELD
CodeEditingAction 1639306774138 Game.java CHANGE int bonus FIELD
CodeEditingAction 1639306797055 Game.java CHANGE Game.java CLASS
EditAction 1639306797174 Game.java 2950 8 8 0
EditAction 1639306797178 GameTest.java 4792 10 106 8
CodeEditingAction 1639306848089 Game.java CHANGE Game.java CLASS
EditAction 1639306848206 Game.java 2930 8 8 0
EditAction 1639306882975 Game.java 2930 8 8 0
EditAction 1639306882980 Game.java 2930 8 8 0
EditAction 1639306882984 Game.java 2930 8 8 0
EditAction 1639306882989 Game.java 2930 8 8 0
EditAction 1639306882993 Game.java 2930 8 8 0
EditAction 1639306882998 Game.java 2930 8 8 0
EditAction 1639306883002 Game.java 2930 8 8 0
EditAction 1639306883022 Game.java 2930 8 8 0
EditAction 1639306883177 Game.java 2930 8 8 0
EditAction 1639306884446 Game.java 2930 8 8 0
EditAction 1639306884450 Game.java 2930 8 8 0
EditAction 1639306884454 Game.java 2930 8 8 0
EditAction 1639306884458 Game.java 2930 8 8 0
EditAction 1639306884470 Game.java 2930 8 8 0
EditAction 1639306886828 Game.java 2930 8 8 0
EditAction 1639306886833 Game.java 2930 8 8 0
EditAction 1639306886938 Game.java 2930 8 8 0
EditAction 1639306891414 Game.java 2930 8 8 0
EditAction 1639306891419 Game.java 2930 8 8 0
EditAction 1639306891423 Game.java 2930 8 8 0
EditAction 1639306891427 Game.java 2930 8 8 0
EditAction 1639306891439 Game.java 2930 8 8 0
EditAction 1639306893743 Game.java 2930 8 8 0
EditAction 1639306893748 Game.java 2930 8 8 0
EditAction 1639306893852 Game.java 2930 8 8 0
EditAction 1639306894443 Game.java 2930 8 8 0
EditAction 1639306894447 Game.java 2930 8 8 0
EditAction 1639306894452 Game.java 2930 8 8 0
EditAction 1639306894456 Game.java 2930 8 8 0
EditAction 1639306894467 Game.java 2930 8 8 0
CodeEditingAction 1639307282788 Game.java ADD Frmae lastFrame FIELD
CodeEditingAction 1639307285797 Game.java CHANGE Framae lastFrame FIELD
CodeEditingAction 1639307287089 Game.java CHANGE Game.java CLASS
EditAction 1639307287090 Game.java 3038 8 5 0
EditAction 1639307287215 Game.java 3038 8 5 0
EditAction 1639307287220 GameTest.java 4792 10 106 8
CodeEditingAction 1639307363102 Game.java CHANGE Game.java CLASS
EditAction 1639307363268 Game.java 3005 8 5 0
CodeEditingAction 1639307410631 Game.java CHANGE Game.java CLASS
EditAction 1639307410746 Game.java 3027 8 8 0
CodeEditingAction 1639307425984 Game.java ADD It initializes FIELD
CodeEditingAction 1639307425984 Game.java ADD an empty FIELD
CodeEditingAction 1639307425984 Game.java ADD bowling game FIELD
CodeEditingAction 1639307431191 Game.java CHANGE Game.java CLASS
EditAction 1639307431308 GameTest.java 4792 10 106 8
CodeEditingAction 1639307522638 Game.java CHANGE Game.java CLASS
EditAction 1639307522638 Game.java 3061 8 8 0
TestFailureAction 1639307528320 GameTest.java FAIL
CodeEditingAction 1639307631442 Game.java CHANGE Game.java CLASS
EditAction 1639307631443 Game.java 2957 8 8 0
TestFailureAction 1639307637139 GameTest.java FAIL
CodeEditingAction 1639307643083 Game.java CHANGE Game.java CLASS
EditAction 1639307643083 Game.java 2932 8 8 0
TestFailureAction 1639307646114 GameTest.java FAIL
CodeEditingAction 1639307913537 Game.java CHANGE Game.java CLASS
EditAction 1639307913538 Game.java 3043 8 8 0
TestPassAction 1639307921989 GameTest.java OK
TestCreationAction 1639307977164 GameTest.java ADD void testShouldBeEexactlyCalculatedScoreWithSpareAtLastFrame()/2 METHOD ADD void testShouldBeEexactlyCalculatedScoreWithSpareAtLastFrame()/2 METHOD
TestCreationAction 1639308029209 GameTest.java RENAME testShouldBeEexactlyCalculatedScoreWithSpareAtLastFrame()/2=>void testShouldBeEexactlyCalculatedScoreWithStrikeAtLastFrame() METHOD RENAME testShouldBeEexactlyCalculatedScoreWithSpareAtLastFrame()/2=>void testShouldBeEexactlyCalculatedScoreWithStrikeAtLastFrame() METHOD
TestCreationAction 1639308284463 GameTest.java CHANGE GameTest.java CLASS CHANGE GameTest.java CLASS
EditAction 1639308284463 GameTest.java 5309 11 118 9
EditAction 1639308284585 GameTest.java 5309 11 118 9
TestFailureAction 1639308289442 GameTest.java FAIL
TestEditingAction 1639308410428 GameTest.java CHANGE GameTest.java CLASS CHANGE GameTest.java CLASS
EditAction 1639308410429 GameTest.java 4826 10 107 8
EditAction 1639308410599 GameTest.java 4826 10 107 8
CodeEditingAction 1639308467424 Game.java CHANGE Game.java CLASS
EditAction 1639308467425 Game.java 3019 8 8 0
TestPassAction 1639308473413 GameTest.java OK
TestCreationAction 1639308509613 GameTest.java ADD void testShouldBeEexactlyCalculatedScoreWithSpareAtLastFrame()/2 METHOD ADD void testShouldBeEexactlyCalculatedScoreWithSpareAtLastFrame()/2 METHOD
TestCreationAction 1639308515123 GameTest.java RENAME testShouldBeEexactlyCalculatedScoreWithSpareAtLastFrame()/2=>void testShouldBeEexactlyCalculatedScoreWithStrikeAtLastFrame() METHOD RENAME testShouldBeEexactlyCalculatedScoreWithSpareAtLastFrame()/2=>void testShouldBeEexactlyCalculatedScoreWithStrikeAtLastFrame() METHOD
TestCreationAction 1639308516530 GameTest.java CHANGE GameTest.java CLASS CHANGE GameTest.java CLASS
EditAction 1639308516530 GameTest.java 5370 11 120 9
EditAction 1639308516652 GameTest.java 5370 11 120 9
TestCreationAction 1639308608762 GameTest.java CHANGE GameTest.java CLASS CHANGE GameTest.java CLASS
EditAction 1639308608762 GameTest.java 5344 11 119 9
EditAction 1639308608790 GameTest.java 5344 11 119 9
TestFailureAction 1639308609104 GameTest.java FAIL
